{
    "workbench.colorCustomizations": {
        "activityBar.background": "#1b1b1b",
        "statusBar.background" : "#111111",
        "statusBar.noFolderBackground" : "#111111",
        "statusBar.debuggingBackground" : "#b65800"       
    }
}